2019-05-18 13:37:59,052 [INFO ][main      ][ task5.App] - Начало работы программы
2019-05-18 13:38:39,872 [INFO ][main      ][ task5.App] - Начало работы программы
2019-05-18 13:38:42,194 [INFO ][main      ][task5.VendingMachine] - Начало использования метода выбора напитков
2019-05-18 13:41:10,069 [INFO ][main      ][ task5.App] - Начало работы программы
2019-05-18 13:41:12,720 [INFO ][main      ][task5.VendingMachine] - Начало использования метода выбора напитков
2019-05-18 13:41:16,093 [ERROR][main      ][task5.VendingMachine] - Ввод с клавиатуры
2019-05-18 13:42:27,724 [INFO ][main      ][ task5.App] - Начало работы программы
2019-05-18 13:42:30,215 [INFO ][main      ][task5.VendingMachine] - Начало использования метода выбора напитков
2019-05-18 13:42:34,564 [WARN ][main      ][task5.VendingMachine] - Ввод с клавиатуры (Выбор напитка)
2019-05-18 13:42:41,180 [INFO ][main      ][ task5.App] - Начало работы программы
2019-05-18 13:42:46,494 [INFO ][main      ][task5.VendingMachine] - Начало использования метода выбора напитков
2019-05-18 13:42:47,533 [WARN ][main      ][task5.VendingMachine] - Ввод с клавиатуры (Выбор напитка)
2019-05-18 13:42:47,533 [ERROR][main      ][task5.VendingMachine] - Внесено недостаточное количество средств
2019-05-18 13:44:56,987 [INFO ][main      ][ task5.App] - Начало работы программы
2019-05-18 13:45:00,461 [INFO ][main      ][task5.VendingMachine] - Начало использования метода выбора напитков
2019-05-18 13:45:00,462 [INFO ][main      ][ task5.App] - Вызов метода выбор напитков из класса App
2019-05-18 13:45:09,644 [WARN ][main      ][task5.VendingMachine] - Ввод с клавиатуры (Выбор напитка)
2019-05-18 13:45:09,644 [ERROR][main      ][task5.VendingMachine] - Внесено недостаточное количество средств
2019-05-18 13:45:16,811 [INFO ][main      ][task5.VendingMachine] - Программа закончена
